Uuid,Void/Retire,Name,Description,Required,Format,Format description,Validator,Location behavior,Uniqueness behavior
"9C92F3DF-AE32-462F-8FB2-A78DFAF8BA7C
",,National ID,Botswana National Id,FALSE,,,,NOT_USED,UNIQUE
5E8BFED6-1729-4A9B-AB5A-46B27389EE5F,,Passport Number,Passport number,FALSE,,,,NOT_USED,UNIQUE
3179C66B-3A00-4DEF-AC53-A07B49DF8F54,,Birth Certificate Number,Birth Cert Number,FALSE	,	,	,,NOT_USED,UNIQUE
,,,,,,,,,
